…
V_negative_stress <- as.matrix(env$projected_negative_dependence_stress[[1L]])
V_positive_stress <- as.matrix(env$projected_positive_dependence_stress[[1L]])
round(V_negative_stress, 4)
#>        frpm   snap
#> frpm  0.024 -0.024
#> snap -0.024  0.024
round(V_positive_stress, 4)
#>       frpm  snap
#> frpm 0.024 0.016
#> snap 0.016 0.024
summary(env)[, c("site_key", "scenario", "projection_status",
                 "sign_changes", "projected_order_reversals",
                 "raw_interval_violations",
                 "projection_distance_relative")]
#> # A tibble: 100 × 7
#>    site_key   scenario     projection_status sign_changes projected_order_reve…¹
#>    <chr>      <chr>        <chr>                    <int>                  <int>
#>  1 S001::2024 negative_de… identity_k_le_2              0                      0
#>  2 S001::2024 positive_de… identity_k_le_2              0                      0
#>  3 S002::2024 negative_de… identity_k_le_2              0                      0
#>  4 S002::2024 positive_de… identity_k_le_2              0                      0
#>  5 S003::2024 negative_de… identity_k_le_2              0                      0
#>  6 S003::2024 positive_de… identity_k_le_2              0                      0
#>  7 S004::2024 negative_de… identity_k_le_2              0                      0
#>  8 S004::2024 positive_de… identity_k_le_2              0                      0
#>  9 S005::2024 negative_de… identity_k_le_2              0                      0
#> 10 S005::2024 positive_de… identity_k_le_2              0                      0
#> # ℹ 90 more rows
#> # ℹ abbreviated name: ¹​projected_order_reversals
#> # ℹ 2 more variables: raw_interval_violations <int>,
#> #   projection_distance_relative <dbl>
```
…
